20

6 9
5
t 4 3 w
f 5 1 e
r 2 0 s
f 0 1 e
h 1 3 w
12 4

10 6
9
f 2 1 w
h 6 0 e
t 1 5 w
t 3 0 n
h 7 5 e
h 9 1 e
f 3 2 n
r 3 3 e
r 4 5 n
76 38

6 11
13
f 4 0 s
r 3 10 s
h 4 7 e
h 2 6 e
f 3 10 e
f 4 3 e
t 1 1 e
t 4 2 e
h 5 0 s
t 5 5 n
t 5 10 n
t 3 9 n
r 0 8 e
31 10

9 5
11
f 5 1 n
t 0 2 w
r 8 3 n
f 8 1 w
t 4 0 e
t 3 3 w
f 8 3 e
f 1 0 s
h 1 1 n
r 3 1 n
h 7 0 s
79 43

6 8
12
f 0 5 n
f 4 4 n
r 3 5 n
h 3 5 e
h 3 1 e
h 0 4 s
r 2 4 s
f 2 1 e
t 0 4 n
t 3 6 n
r 3 5 e
f 1 2 s
94 9

8 8
14
f 0 3 w
f 7 5 n
h 6 4 n
t 2 5 s
h 0 3 n
f 5 7 n
t 7 4 w
f 3 0 e
h 6 2 e
h 5 7 e
h 0 7 e
t 7 2 n
h 4 4 s
t 4 3 w
82 34

7 5
14
f 4 1 s
t 2 2 s
f 0 0 e
h 5 0 n
t 0 0 w
f 6 4 e
t 6 2 e
r 4 3 w
f 5 0 n
r 4 4 e
t 2 1 e
f 0 1 w
h 0 4 s
r 4 1 e
52 39

10 12
11
h 6 3 e
t 0 8 n
r 5 1 w
f 7 10 s
r 1 9 w
r 5 7 n
h 2 10 n
f 0 2 e
t 3 4 s
h 8 8 w
t 7 6 w
46 10

7 7
8
f 2 2 s
h 4 5 w
t 3 4 s
h 3 4 s
h 1 2 n
h 1 1 e
t 2 1 s
r 0 3 s
86 85

12 5
6
f 4 1 w
r 1 2 e
t 4 4 n
t 0 1 e
r 0 2 w
f 6 0 w
25 18

8 8
9
h 6 2 w
h 5 0 s
f 0 3 e
h 7 1 n
f 2 4 w
t 2 1 w
t 6 0 n
t 6 2 s
t 4 0 e
2 1

8 8
13
t 2 7 s
t 3 6 n
t 5 5 e
t 2 3 n
t 3 6 n
r 7 3 s
h 2 7 s
f 1 1 w
t 4 5 e
h 0 5 e
f 1 6 w
h 1 7 s
t 7 7 n
69 63

10 7
6
t 7 0 s
h 4 6 w
f 3 1 w
r 8 2 e
f 7 4 n
t 6 4 n
90 41

11 5
9
h 6 0 s
r 10 0 n
t 5 3 w
r 7 0 e
h 4 0 w
t 1 1 w
t 1 1 w
f 6 4 n
r 6 1 e
68 8

5 10
9
r 4 1 w
t 4 3 e
t 0 0 w
h 2 9 s
t 0 9 s
h 2 3 e
f 0 2 w
h 0 2 e
t 2 1 n
51 3

8 10
8
f 3 5 s
h 6 8 n
f 0 2 n
r 4 1 s
t 6 8 e
r 5 0 n
t 6 0 w
t 3 6 n
34 3

5 7
8
r 0 0 n
r 1 3 n
h 2 3 w
f 0 2 e
t 3 6 w
t 3 0 e
r 0 1 e
t 2 4 s
95 66

7 5
12
f 1 4 e
h 1 1 n
f 6 4 s
h 3 4 e
f 6 0 s
f 0 3 e
r 6 1 s
r 6 0 n
h 4 3 n
t 3 4 w
r 4 0 s
r 3 2 e
59 47

6 10
8
t 3 1 n
h 2 0 e
f 3 0 n
r 5 6 w
r 2 1 s
h 2 3 e
t 2 2 s
h 5 5 w
2 1

11 12
14
h 6 11 w
t 6 4 e
f 7 9 e
h 4 8 n
t 0 11 w
r 7 5 n
t 3 2 n
f 9 2 n
f 0 0 w
r 8 6 w
t 9 1 n
f 4 10 s
h 4 4 s
h 5 6 w
37 33
